soma/simulation/qsim/soma.msim.vcd
$comment
	File created using the following command:
		vcd file soma.msim.vcd -direction
$end
$date
	Tue May 21 08:43:43 2019
$end
$version
	ModelSim Version 10.1d
$end
$timescale
	1ps
$end
$scope module soma_vlg_vec_tst $end
$var reg 8 ! ai [7:0] $end
$var reg 8 " bi [7:0] $end
$var wire 1 # so [7] $end
$var wire 1 $ so [6] $end
$var wire 1 % so [5] $end
$var wire 1 & so [4] $end
$var wire 1 ' so [3] $end
$var wire 1 ( so [2] $end
$var wire 1 ) so [1] $end
$var wire 1 * so [0] $end
$var wire 1 + sampler $end
$scope module i1 $end
$var wire 1 , gnd $end
$var wire 1 - vcc $end
$var wire 1 . unknown $end
$var tri1 1 / devclrn $end
$var tri1 1 0 devpor $end
$var tri1 1 1 devoe $end
$var wire 1 2 so[0]~output_o $end
$var wire 1 3 so[1]~output_o $end
$var wire 1 4 so[2]~output_o $end
$var wire 1 5 so[3]~output_o $end
$var wire 1 6 so[4]~output_o $end
$var wire 1 7 so[5]~output_o $end
$var wire 1 8 so[6]~output_o $end
$var wire 1 9 so[7]~output_o $end
$var wire 1 : ai[0]~input_o $end
$var wire 1 ; bi[0]~input_o $end
$var wire 1 < s~0_combout $end
$var wire 1 = ai[1]~input_o $end
$var wire 1 > bi[1]~input_o $end
$var wire 1 ? s~1_combout $end
$var wire 1 @ ai[2]~input_o $end
$var wire 1 A bi[2]~input_o $end
$var wire 1 B c~0_combout $end
$var wire 1 C s~2_combout $end
$var wire 1 D bi[3]~input_o $end
$var wire 1 E ai[3]~input_o $end
$var wire 1 F c~1_combout $end
$var wire 1 G c~2_combout $end
$var wire 1 H s~3_combout $end
$var wire 1 I ai[4]~input_o $end
$var wire 1 J bi[4]~input_o $end
$var wire 1 K c~3_combout $end
$var wire 1 L s~4_combout $end
$var wire 1 M bi[5]~input_o $end
$var wire 1 N ai[5]~input_o $end
$var wire 1 O c~4_combout $end
$var wire 1 P c~5_combout $end
$var wire 1 Q s~5_combout $end
$var wire 1 R ai[6]~input_o $end
$var wire 1 S bi[6]~input_o $end
$var wire 1 T c~6_combout $end
$var wire 1 U s~6_combout $end
$var wire 1 V bi[7]~input_o $end
$var wire 1 W ai[7]~input_o $end
$var wire 1 X s~7_combout $end
$var wire 1 Y s~8_combout $end
$upscope $end
$upscope $end
$enddefinitions $end
#0
$dumpvars
b10100111 !
b11000011 "
0*
1)
0(
1'
0&
1%
1$
0#
x+
0,
1-
x.
1/
10
11
02
13
04
15
06
17
18
09
1:
1;
0<
1=
1>
1?
1@
0A
1B
0C
0D
0E
0F
1G
1H
0I
0J
0K
0L
0M
1N
0O
0P
1Q
0R
1S
0T
1U
1V
1W
1X
0Y
$end
#50000
b100111 !
b111 !
b1111 !
b1101 !
b1100 !
b1000011 "
b11 "
b100011 "
b110011 "
b110111 "
1A
1J
1M
0S
0V
0:
0=
1E
0N
0W
0+
1F
0X
0B
1K
1C
1L
0U
1Y
1<
0H
0F
1O
14
16
08
19
12
05
1(
1&
0$
1#
1*
0'
0Y
0C
0L
1T
09
04
06
0#
0(
0&
0Q
07
0%
1U
18
1$
#100000
b1001100 !
b110110 "
b1001101 !
b10110110 "
b11110110 "
0;
1S
1V
1:
1R
1+
1X
1Y
19
1#
0Y
09
0#
#150000
b11001101 !
b11101101 !
b11100101 !
b11100111 !
b11100110 "
b11100111 "
b1100111 "
b100111 "
1;
0J
0S
0V
1=
0E
1N
1W
0+
1B
0O
0X
0K
0<
1L
0U
1Y
1H
1Q
1F
02
16
08
19
15
17
0*
1&
0$
1#
1'
1%
1C
0Q
0Y
0L
14
07
09
06
1(
0%
0#
0&
#200000
b11110111 !
b11110011 !
b100101 "
b101 "
b11010011 !
b11011011 !
b10101 "
b10100 "
0;
0>
1J
0M
0@
1E
1I
0N
1+
0B
1P
0T
0G
1K
1<
0C
0H
0F
1X
1O
12
04
05
1*
0(
0'
1C
1Q
1U
1L
0K
14
17
18
16
1(
1%
1$
1&
1H
1Y
0O
15
19
1'
1#
0L
06
0&
#250000
b11100 "
b10011011 !
b10011010 !
b11010 !
b10011100 "
b11011100 "
b11110 !
b10110 !
b11011101 "
0:
1@
0E
0R
0W
1;
1D
1S
1V
0+
1G
0X
0C
0Y
1K
04
09
0(
0#
0H
1Y
1O
05
19
0'
1#
1L
16
1&
#300000
b11011001 "
b110 !
b11011011 "
b11001011 "
b1001011 "
0I
1>
0A
0J
0V
1+
0P
1B
0G
0O
0?
1C
0Y
1G
0K
03
14
09
0)
1(
0#
0Q
0C
1H
1K
07
04
15
0%
0(
1'
0H
0L
05
06
0'
0&
1L
16
1&
#350000
b1101011 "
b10000110 !
b101011 "
b10001110 !
b101010 "
b101110 "
b10011110 !
b111110 "
1E
1I
1W
0;
1A
1J
1M
0S
0+
1P
1X
1F
1O
1H
0<
1C
1Q
0U
1T
15
02
14
17
08
1'
0*
1(
1%
0$
0Q
1Y
07
19
0%
1#
1U
18
1$
#400000
b10011100 !
b11011100 !
b11011101 !
b1011101 !
b1111110 "
b1111111 "
b1001101 !
b1101111 "
1;
0J
1S
1:
0=
0I
1R
0W
1+
0P
0O
0T
1Q
17
1%
0U
08
0$
#450000
b1101101 !
b1100111 "
b11100111 "
b11000111 "
b11000011 "
b1101111 !
b101111 !
b101110 !
b10101110 !
b10000011 "
0A
0D
0M
0S
1V
0:
1=
1N
0R
1W
0+
0F
0C
0H
0Y
1<
04
05
09
12
0(
0'
0#
1*
#500000
b10010011 "
b10001110 !
b10011011 "
b10111011 "
b10111111 "
b11001110 !
b11111111 "
0N
1R
1A
1D
1J
1M
1S
1+
0X
1F
1O
1C
1H
0L
1T
14
15
06
1(
1'
0&
1Y
0Q
19
07
1#
0%
1U
18
1$
#550000
b11001010 !
b11111110 "
b11011010 !
b11011011 !
b1011011 !
b11110110 "
b11010110 "
b11010010 "
b11011 !
b10010010 "
0;
0A
0D
0M
0S
1:
0@
1I
0R
0W
0+
0G
0F
0T
1P
0H
1Q
1L
0K
05
17
16
0'
1%
1&
1H
0U
0O
15
08
1'
0$
0L
06
0&
#600000
b10010000 "
b10000000 "
b111011 !
b101011 !
b101010 !
b10101010 !
b10100000 "
b10100100 "
b11101010 !
b11100100 "
0:
0I
1N
1R
1W
0>
1A
0J
1M
1S
1+
0B
0P
1T
1F
1?
0<
0C
0F
1K
13
02
04
1)
0*
0(
1C
0Q
1U
0H
0K
14
07
18
05
1(
0%
1$
0'
1H
1L
15
16
1'
1&
0L
06
0&
#650000
b11100010 !
b11100000 !
b11100101 "
b11101101 "
b11000000 !
b11010000 !
b10101101 "
1;
1D
0S
0=
0E
1I
0N
0+
0T
0?
1<
0U
1L
1Q
1X
03
12
08
16
17
0)
1*
0$
1&
1%
1U
18
1$
0Y
09
0#
#700000
b101101 "
b11010100 !
b111101 "
b11010101 !
b1010101 !
b10101 !
b10111 !
b111100 "
b110111 !
b1111100 "
1:
1=
1@
1N
0R
0W
0;
1J
1S
0V
1+
1G
1T
0X
1P
1?
0C
0Q
0L
1Y
1K
1X
13
04
07
06
19
1)
0(
0%
0&
1#
0H
0U
0Y
1Q
1O
05
08
09
17
0'
0$
0#
1%
1L
1Y
16
19
1&
1#
#750000
b1111000 "
b11111000 "
b110011 !
b110001 !
b10001 !
b10111000 "
0=
0@
0N
0A
0S
1V
0+
0G
0X
0?
0Q
1U
0Y
0K
03
07
18
09
0)
0%
1$
0#
1H
1Y
0O
15
19
1'
1#
0L
06
0&
#800000
b10111010 "
b10110010 "
b10100010 "
b10000 !
b10010000 !
b11010000 !
b11100010 "
0:
1R
1W
1>
0D
0J
1S
1+
0P
1?
0<
0H
1L
0T
13
02
05
16
1)
0*
0'
1&
1Q
17
1%
0U
08
0$
#850000
b11000010 "
b11000110 "
b1000110 "
b11010100 !
b1000100 "
b1001100 "
b10010100 !
1@
0R
0>
1A
1D
0M
0V
0+
1G
1X
1U
0?
1H
0Q
0Y
1K
18
03
15
07
09
1$
0)
1'
0%
0#
0H
1Y
1P
05
19
0'
1#
0L
06
0&
1Q
17
1%
#900000
b10011100 !
b1001101 "
b10111100 !
b1011101 "
b10111101 !
b111101 !
b11101 "
b10011101 "
1;
1J
0S
1V
1:
1E
1N
0W
1+
1O
0X
1T
1?
1L
0U
0Y
1H
0Q
13
16
08
09
15
07
1)
1&
0$
0#
1'
0%
1Y
1U
19
18
1#
1$
#950000
b111111 !
b10111101 "
b10111001 "
b10111011 "
b1111111 !
b1110111 !
b10111010 "
b1010111 !
b1010110 !
b11111010 "
0;
1>
0A
1M
1S
0:
1=
0E
0N
1R
0+
1B
0G
1X
0?
1C
0H
1G
0K
03
14
05
0)
1(
0'
0C
1H
0Y
1K
0O
04
15
09
0(
1'
0#
0H
0L
1O
05
06
0'
0&
1L
16
1&
